<?xml version="1.0" standalone="no"?>
<!DOCTYPE svg PUBLIC "-//W3C//DTD SVG 1.1//EN" "http://www.w3.org/Graphics/SVG/1.1/DTD/svg11.dtd" >
<svg xmlns="http://www.w3.org/2000/svg">
<metadata>Generated by IcoMoon</metadata>
<defs>
<font id="icomoon" horiz-adv-x="1024">
<font-face units-per-em="1024" ascent="960" descent="-64" />
<missing-glyph horiz-adv-x="1024" />
<glyph unicode="&#x20;" horiz-adv-x="512" d="" />
<glyph unicode="&#xe900;" glyph-name="location" d="M512 960c-176.732 0-320-143.268-320-320 0-320 320-704 320-704s320 384 320 704c0 176.732-143.27 320-320 320zM512 448c-106.040 0-192 85.96-192 192s85.96 192 192 192 192-85.96 192-192-85.96-192-192-192z" />
<glyph unicode="&#xe901;" glyph-name="google-plus2" d="M0.806 90.336c-0.244 2.532-0.452 5.070-0.584 7.63 0.13-2.56 0.34-5.098 0.584-7.63zM235.908 394.852c92.010-2.738 153.734 92.698 137.862 213.198-15.894 120.48-103.396 217.168-195.408 219.922-92.026 2.73-153.74-89.482-137.852-210 15.882-120.468 103.352-220.374 195.398-223.12zM1024 704v85.31c0 93.88-76.782 170.69-170.658 170.69h-682.656c-92.276 0-168.012-74.232-170.564-165.926 58.362 51.386 139.324 94.316 222.874 94.316 89.304 0 357.244 0 357.244 0l-79.948-67.618h-113.268c75.13-28.804 115.156-116.124 115.156-205.722 0-75.248-41.81-139.954-100.888-185.968-57.644-44.902-68.572-63.708-68.572-101.878 0-32.578 61.746-88 94.032-110.788 94.382-66.538 124.916-128.312 124.916-231.456 0-16.428-2.042-32.83-6.066-48.96h307.742c93.874 0 170.656 76.75 170.656 170.69v533.308h-192v-191.998h-64v192h-191.998v64h191.998v192h64v-192h192zM185.886 194.064c21.614 0 41.422 0.59 61.936 0.59-27.146 26.334-48.626 58.6-48.626 98.38 0 23.608 7.564 46.336 18.134 66.52-10.782-0.77-21.79-0.994-33.126-0.994-74.356 0-137.506 24.076-184.204 63.854v-67.242l0.006-201.73c53.44 25.374 116.888 40.622 185.88 40.622zM3.42 72.742c-1.112 5.458-1.966 11.006-2.542 16.634 0.574-5.628 1.43-11.176 2.542-16.634zM455.45 7.154c-15.058 58.806-68.454 87.964-142.888 139.568-27.072 8.732-56.894 13.874-88.894 14.208-89.618 0.964-173.108-34.942-220.216-88.372 15.92-77.706 85.034-136.558 167.234-136.558h286.444c1.816 11.128 2.696 22.632 2.696 34.432 0 12.534-1.534 24.792-4.376 36.722z" />
<glyph unicode="&#xe902;" glyph-name="facebook2" d="M853.35 960h-682.702c-94.25 0-170.648-76.42-170.648-170.686v-682.63c0-94.266 76.398-170.684 170.648-170.684h341.352v448h-128v128h128v96c0 88.366 71.634 160 160 160h160v-128h-160c-17.674 0-32-14.328-32-32v-96h176l-32-128h-144v-448h213.35c94.25 0 170.65 76.418 170.65 170.684v682.63c0 94.266-76.4 170.686-170.65 170.686z" />
<glyph unicode="&#xe903;" glyph-name="instagram" d="M854 960h-684c-93.5 0-170-76.5-170-170v-684c0-93.5 76.5-170 170-170h684c93.5 0 170 76.5 170 170v684c0 93.5-76.5 170-170 170zM327.8 512h368.4c6.988-20.058 10.8-41.59 10.8-64 0-107.524-87.476-195-195-195s-195 87.476-195 195c0 22.41 3.812 43.942 10.8 64zM896 511.95v-383.95c0-35.2-28.8-64-64-64h-640c-35.2 0-64 28.8-64 64v384h100.108c-4.642-20.602-7.108-42.016-7.108-64 0-160.458 130.542-291 291-291s291 130.542 291 291c0 21.984-2.464 43.398-7.108 64l100.108-0.050zM896 736c0-17.6-14.4-32-32-32h-64c-17.6 0-32 14.4-32 32v64c0 17.6 14.4 32 32 32h64c17.6 0 32-14.4 32-32v-64z" />
<glyph unicode="&#xe90b;" glyph-name="chevron-thin-down" d="M891.802 660.019c13.926 13.722 36.301 13.722 50.125 0s13.875-35.891 0-49.613l-404.89-400.896c-13.824-13.722-36.198-13.722-50.125 0l-404.89 400.896c-13.824 13.722-13.824 35.891 0 49.613 13.875 13.722 36.301 13.722 50.125 0l379.853-365.619 379.802 365.619z" />
<glyph unicode="&#xe90c;" glyph-name="chevron-thin-left" d="M711.219 80.998c13.722-13.926 13.722-36.301 0-50.125s-35.891-13.875-49.613 0l-400.896 404.89c-13.722 13.824-13.722 36.198 0 50.125l400.896 404.89c13.722 13.824 35.891 13.824 49.613 0 13.722-13.875 13.722-36.301 0-50.125l-365.619-379.853 365.619-379.802z" />
<glyph unicode="&#xe90d;" glyph-name="chevron-thin-right" d="M678.4 460.8l-365.619 379.904c-13.722 13.824-13.722 36.198 0 50.125 13.722 13.824 35.891 13.824 49.613 0l400.896-404.89c13.722-13.875 13.722-36.301 0-50.125l-400.896-404.89c-13.722-13.875-35.891-13.824-49.613 0-13.722 13.773-13.722 36.198 0 50.125l365.619 379.75z" />
<glyph unicode="&#xe90e;" glyph-name="chevron-thin-up" d="M132.198 261.581c-13.926-13.722-36.301-13.722-50.125 0s-13.875 35.891 0 49.613l404.89 400.896c13.824 13.722 36.198 13.722 50.125 0l404.89-400.896c13.824-13.722 13.824-35.891 0-49.613-13.875-13.722-36.301-13.722-50.074 0l-379.904 365.619-379.802-365.619z" />
<glyph unicode="&#xe90f;" glyph-name="cloud" d="M1024 393.216c0-132.301-109.773-239.616-245.094-239.616h-593.715c-102.298 0-185.19 81.101-185.19 181.094 0 99.891 82.893 180.992 185.19 180.992 7.475 0 14.746-0.614 21.965-1.382-1.894 12.595-2.918 25.498-2.918 38.707 0 146.995 121.907 266.189 272.384 266.189 123.238 0 227.277-79.974 260.915-189.798 13.466 2.202 27.238 3.379 41.421 3.379 135.27 0 245.043-107.162 245.043-239.565z" />
<glyph unicode="&#xe910;" glyph-name="controller-next" d="M626.893 485.376l-368.794 253.389c-29.286 19.61-53.299 5.222-53.299-32v-491.981c0-37.12 24.013-51.507 53.299-32l368.794 253.491c0 0 14.285 10.189 14.285 24.474 0 14.336-14.285 24.627-14.285 24.627zM716.8 768h51.2c28.314 0 51.2-2.458 51.2-30.72v-552.96c0-28.262-22.886-30.72-51.2-30.72h-51.2c-28.314 0-51.2 2.458-51.2 30.72v552.96c0 28.262 22.886 30.72 51.2 30.72z" />
<glyph unicode="&#xe911;" glyph-name="controller-paus" d="M768 819.2h-102.4c-28.314 0-51.2-2.458-51.2-30.72v-655.36c0-28.262 22.886-30.72 51.2-30.72h102.4c28.314 0 51.2 2.458 51.2 30.72v655.36c0 28.262-22.886 30.72-51.2 30.72zM358.4 819.2h-102.4c-28.314 0-51.2-2.458-51.2-30.72v-655.36c0-28.262 22.886-30.72 51.2-30.72h102.4c28.314 0 51.2 2.458 51.2 30.72v655.36c0 28.262-22.886 30.72-51.2 30.72z" />
<glyph unicode="&#xe912;" glyph-name="controller-play" d="M768 460.749c0-15.309-15.616-26.317-15.616-26.317l-438.323-271.514c-31.949-20.941-58.061-5.427-58.061 34.253v527.206c0 39.782 26.112 55.194 58.112 34.304l438.323-271.616c-0.051 0 15.565-11.008 15.565-26.317z" />
<glyph unicode="&#xe913;" glyph-name="controller-stop" d="M819.2 717.056v-502.17c0-33.843-27.443-61.286-61.235-61.286h-502.118c-28.211 0-51.046 22.835-51.046 51.046v502.118c0 33.792 27.443 61.235 61.235 61.235h502.17c28.16 0 50.995-22.835 50.995-50.944z" />
<glyph unicode="&#xe914;" glyph-name="download" d="M768 614.4h-153.6v307.2h-204.8v-307.2h-153.6l256-256 256 256zM990.106 279.962c-10.752 11.469-82.483 88.218-102.963 108.237-13.568 13.261-32.973 21.402-53.35 21.402h-89.958l156.877-153.293h-181.453c-5.222 0-9.933-2.662-12.288-6.81l-41.779-95.898h-306.381l-41.779 95.898c-2.355 4.147-7.117 6.81-12.288 6.81h-181.453l156.826 153.293h-89.907c-20.326 0-39.731-8.141-53.35-21.402-20.48-20.070-92.211-96.819-102.963-108.237-25.037-26.675-38.81-47.923-32.256-74.189l28.723-157.389c6.554-26.317 35.379-47.923 64.102-47.923h835.174c28.723 0 57.549 21.606 64.102 47.923l28.723 157.389c6.451 26.266-7.27 47.514-32.358 74.189z" />
<glyph unicode="&#xe915;" glyph-name="install" d="M975.821 414.822l-162.355 405.862c-11.981 30.054-41.062 49.715-73.421 49.715h-124.621l19.456-208.128h138.24l-261.12-216.474-261.12 216.474h138.24l19.456 208.128h-124.621c-32.358 0-61.44-19.661-73.421-49.715l-162.355-405.862c-14.746-36.915-19.098-77.158-12.595-116.326l30.208-181.197c6.349-38.144 39.322-66.099 77.978-66.099h736.41c38.656 0 71.629 27.955 77.978 66.099l30.208 181.197c6.605 39.168 2.253 79.411-12.544 116.326zM868.301 192.256c-3.686-22.323-22.989-38.656-45.619-38.656h-621.363c-22.63 0-41.933 16.333-45.619 38.656l-18.688 112.282c-4.762 28.211 16.998 53.862 45.619 53.862h658.79c28.57 0 50.33-25.651 45.619-53.862l-18.739-112.282z" />
<glyph unicode="&#xe916;" glyph-name="save" d="M776.858 870.4h-572.058c-56.371 0-102.4-46.080-102.4-102.4v-614.4c0-56.32 46.029-102.4 102.4-102.4h614.4c56.371 0 102.4 46.080 102.4 102.4v556.698l-144.742 160.102zM716.8 563.2c0-28.109-23.040-51.2-51.2-51.2h-307.2c-28.16 0-51.2 23.091-51.2 51.2v256h409.6v-256zM665.6 768h-102.4v-204.8h102.4v204.8z" />
<glyph unicode="&#xe917;" glyph-name="trash" d="M173.517 608.614l56.371-558.49c3.123-23.603 117.094-101.222 282.112-101.325 165.12 0.102 279.091 77.722 282.163 101.325l56.422 558.49c-86.221-48.23-215.091-71.014-338.586-71.014-123.392 0-252.314 22.784-338.483 71.014zM674.202 895.488l-43.981 48.691c-16.998 24.218-35.43 28.621-71.322 28.621h-93.747c-35.84 0-54.323-4.403-71.27-28.621l-43.981-48.691c-131.584-22.989-227.021-83.968-227.021-128.973v-8.704c0-79.206 174.234-143.411 389.12-143.411 214.938 0 389.171 64.205 389.171 143.411v8.704c0 45.005-95.386 105.984-226.97 128.973zM617.984 750.592l-54.784 68.608h-102.4l-54.682-68.608h-87.040c0 0 95.334 113.715 108.083 129.126 9.728 11.776 19.661 16.282 32.563 16.282h104.602c12.954 0 22.886-4.506 32.614-16.282 12.698-15.411 108.083-129.126 108.083-129.126h-87.040z" />
<glyph unicode="&#xe918;" glyph-name="uninstall" d="M975.821 414.822l-162.355 405.862c-11.981 30.054-41.062 49.715-73.421 49.715h-456.090c-32.358 0-61.44-19.661-73.421-49.715l-162.355-405.862c-14.746-36.915-19.098-77.158-12.595-116.326l30.208-181.197c6.349-38.144 39.322-66.099 77.978-66.099h736.41c38.656 0 71.629 27.955 77.978 66.099l30.208 181.197c6.605 39.168 2.253 79.411-12.544 116.326zM282.624 727.757l83.917 57.958 146.842-102.963 146.842 102.963 83.917-57.958-146.893-104.090 149.914-105.472-83.917-59.955-149.862 106.291-149.862-106.291-83.917 59.955 149.914 105.472-146.893 104.090zM868.301 192.256c-3.686-22.323-22.989-38.656-45.619-38.656h-621.363c-22.63 0-41.933 16.333-45.619 38.656l-18.688 112.282c-4.762 28.211 16.998 53.862 45.619 53.862h658.79c28.57 0 50.33-25.651 45.619-53.862l-18.739-112.282z" />
<glyph unicode="&#xe919;" glyph-name="upload-to-cloud" d="M778.906 632.883c-14.131 0-27.955-1.28-41.421-3.482-33.587 109.824-137.626 189.798-260.864 189.798-150.477 0-272.384-119.194-272.384-266.189 0-13.107 1.024-26.010 2.918-38.707-7.219 0.87-14.49 1.382-21.965 1.382-102.298 0-185.19-80.998-185.19-180.992s82.893-181.094 185.19-181.094h224.41v204.8h-128l230.4 256 230.4-256h-128v-204.8h164.506c135.322 0 245.094 107.315 245.094 239.616 0 132.403-109.773 239.667-245.094 239.667z" />
<glyph unicode="&#xe91a;" glyph-name="upload" d="M409.6 358.4h204.8v307.2h153.6l-256 256-256-256h153.6v-307.2zM990.106 279.962c-10.752 11.469-82.483 88.218-102.963 108.237-13.568 13.261-32.973 21.402-53.35 21.402h-89.958l156.877-153.293h-181.453c-5.222 0-9.933-2.662-12.288-6.81l-41.779-95.898h-306.381l-41.779 95.898c-2.355 4.147-7.117 6.81-12.288 6.81h-181.453l156.826 153.293h-89.907c-20.326 0-39.731-8.141-53.35-21.402-20.48-20.070-92.211-96.819-102.963-108.237-25.037-26.675-38.81-47.923-32.256-74.189l28.723-157.389c6.554-26.317 35.379-47.923 64.102-47.923h835.174c28.723 0 57.549 21.606 64.102 47.923l28.723 157.389c6.451 26.266-7.27 47.514-32.358 74.189z" />
<glyph unicode="&#xe91b;" glyph-name="add-user" d="M818.637-6.605c0.563 109.005-111.923 173.517-221.030 220.518-108.698 46.797-143.411 86.221-143.411 170.701 0 50.637 33.178 34.15 47.718 127.027 6.144 38.502 35.43 0.614 41.062 88.525 0 35.021-16.026 43.725-16.026 43.725s8.141 51.866 11.315 91.802c3.277 41.83-20.378 131.072-117.811 158.464-16.998 17.459-28.518 45.158 23.91 72.909-114.688 5.325-141.363-54.682-202.445-98.816-51.968-38.707-65.997-99.994-63.488-132.608 3.328-39.936 11.418-91.802 11.418-91.802s-16.077-8.704-16.077-43.725c5.632-87.962 35.021-50.022 41.114-88.525 14.541-92.877 47.77-76.39 47.77-127.027 0-84.48-10.854-113.152-119.603-159.949-109.107-46.95-143.053-122.214-142.49-231.219 0.154-32.614-0.563-44.595-0.563-44.595h819.2c0 0-0.717 11.981-0.563 44.595zM870.4 460.8v153.6h-102.4v-153.6h-153.6v-102.4h153.6v-153.6h102.4v153.6h153.6v102.4h-153.6z" />
<glyph unicode="&#xe91c;" glyph-name="archive" d="M715.827 870.4h-407.706c0 0-50.995 0-50.995-51.2h509.696c0 51.2-50.995 51.2-50.995 51.2zM868.762 716.8c0 51.2-50.944 51.2-50.944 51.2h-611.635c0 0-50.944 0-50.944-51.2v-51.2h713.523v51.2zM970.65 665.6c-30.106 30.31-30.106 30.31-30.106 30.31v-81.51h-857.088v81.51c0 0 0 0-30.157-30.31s-51.763-38.4-39.629-102.4c12.083-63.795 70.605-413.491 79.309-460.8 9.523-51.917 62.31-51.2 62.31-51.2h713.523c0 0 52.736-0.717 62.31 51.2 8.704 47.309 67.174 397.005 79.309 460.8 12.032 64-9.574 72.090-39.782 102.4zM716.8 358.554c0-28.365-22.989-51.354-51.354-51.354h-306.893c-28.365 0-51.354 22.989-51.354 51.354v102.246h51.2v-102.4h307.2v102.4h51.2v-102.246z" />
<glyph unicode="&#xe91d;" glyph-name="area-graph" d="M1024 870.4v-819.2h-1007.616c-16.282 0-21.299 10.701-11.059 23.808l228.813 294.298c10.189 13.107 28.314 14.49 40.397 3.174l72.653-68.301c12.032-11.315 29.286-9.114 38.246 4.915l156.006 242.688c8.96 13.978 26.061 15.974 37.939 4.608l111.155-107.315c11.878-11.52 28.621-9.216 37.069 5.12l262.81 398.592c8.499 14.438 20.787 17.613 33.587 17.613z" />
<glyph unicode="&#xe91e;" glyph-name="attachment" d="M286.822-40.96c-66.202 0-128.205 28.416-172.954 73.728-86.784 87.859-110.95 241.203 10.701 364.339 71.219 72.090 356.659 361.114 499.098 505.344 50.586 51.2 114.944 71.014 176.538 54.272 60.57-16.384 110.131-66.611 126.362-127.898 16.486-62.464-3.021-127.642-53.555-178.842l-477.338-483.328c-27.238-27.597-58.061-43.93-88.986-47.206-30.669-3.277-59.904 6.656-80.384 27.392-37.069 37.683-42.394 108.39 19.354 170.854l335.258 339.456c13.773 13.926 36.096 13.926 49.869 0s13.773-36.557 0-50.483l-335.309-339.507c-28.979-29.286-31.642-57.293-19.302-69.837 5.427-5.427 13.619-7.936 23.091-6.861 14.49 1.485 31.027 11.059 46.541 26.675l477.338 483.277c32.768 33.178 45.312 72.192 35.328 109.824-9.83 37.12-39.834 67.482-76.442 77.466-37.171 10.086-75.776-2.662-108.544-35.84-142.438-144.282-427.827-433.254-499.098-505.344-92.979-94.157-70.707-202.547-10.701-263.322 60.058-60.774 167.014-83.405 260.045 10.854l499.098 505.344c13.773 13.926 36.096 13.926 49.869 0s13.773-36.557 0-50.534l-499.098-505.344c-58.829-59.494-124.723-84.48-186.778-84.48z" />
<glyph unicode="&#xe91f;" glyph-name="bar-graph" d="M870.4 921.6h-102.4c-28.262 0-51.2-22.886-51.2-51.2v-869.99h204.8v869.99c0 28.314-22.886 51.2-51.2 51.2zM563.2 614.4h-102.4c-28.262 0-51.2-22.886-51.2-51.2v-562.79h204.8v562.79c0 28.314-22.886 51.2-51.2 51.2zM256 307.2h-102.4c-28.262 0-51.2-22.886-51.2-51.2v-255.59h204.8v255.59c0 28.314-22.886 51.2-51.2 51.2z" />
<glyph unicode="&#xe920;" glyph-name="bell" d="M750.080 536.986c-116.736 251.238-177.459 346.675-368.179 342.682-67.942-1.382-51.661 49.254-103.475 30.054-51.712-19.2-7.322-47.309-60.262-90.778-148.582-122.010-134.912-234.854-65.997-503.808 29.030-113.306-69.99-118.835-30.822-228.608 28.621-80.077 239.565-113.613 462.080-31.078 222.566 82.586 362.803 246.477 334.182 326.554-39.168 109.824-118.323 49.203-167.526 154.982zM559.309 123.136c-198.758-73.728-362.086-30.413-368.998-11.11-11.878 33.28 64.154 144.179 291.379 228.506s354.048 53.043 367.309 15.923c7.834-21.965-90.88-159.539-289.69-233.318zM495.411 302.029c-103.885-38.554-176.077-82.637-222.874-122.317 32.922-29.901 94.566-37.171 155.955-14.387 78.182 28.928 126.259 95.539 107.264 148.685-0.256 0.666-0.563 1.178-0.819 1.843-12.851-4.198-26.010-8.755-39.526-13.824z" />
<glyph unicode="&#xe921;" glyph-name="block" d="M512 952.32c-271.514 0-491.571-220.058-491.571-491.52 0-271.514 220.058-491.571 491.571-491.571 271.411 0 491.52 220.058 491.52 491.571 0 271.462-220.109 491.52-491.52 491.52zM122.829 460.8c0 214.886 174.182 389.12 389.12 389.12 93.645 0 179.507-33.126 246.63-88.218l-547.533-547.533c-55.091 67.174-88.218 152.986-88.218 246.63zM511.949 71.731c-93.594 0-179.456 33.075-246.528 88.166l547.533 547.482c55.040-67.174 88.166-152.934 88.166-246.579 0-214.886-174.285-389.069-389.171-389.069z" />
<glyph unicode="&#xe922;" glyph-name="calendar" d="M870.4 819.2h-51.2v-102.4h-153.6v102.4h-307.2v-102.4h-153.6v102.4h-51.2c-56.371 0-102.4-46.080-102.4-102.4v-614.4c0-56.32 46.029-102.4 102.4-102.4h716.8c56.32 0 102.4 46.080 102.4 102.4v614.4c0 56.32-46.080 102.4-102.4 102.4zM870.4 102.4h-716.8v409.6h716.8v-409.6zM332.8 921.6h-102.4v-179.2h102.4v179.2zM793.6 921.6h-102.4v-179.2h102.4v179.2z" />
<glyph unicode="&#xe923;" glyph-name="camera" d="M512 563.2c-84.838 0-153.6-68.813-153.6-153.6s68.762-153.6 153.6-153.6c84.787 0 153.6 68.813 153.6 153.6s-68.813 153.6-153.6 153.6zM921.6 716.8h-122.88c-16.896 0-35.123 13.107-40.397 29.184l-31.795 95.283c-5.376 16.026-23.501 29.133-40.448 29.133h-348.16c-16.896 0-35.123-13.107-40.397-29.082l-31.846-95.334c-5.325-16.077-23.501-29.184-40.397-29.184h-122.88c-56.32 0-102.4-46.080-102.4-102.4v-460.8c0-56.32 46.080-102.4 102.4-102.4h819.2c56.32 0 102.4 46.080 102.4 102.4v460.8c0 56.32-46.080 102.4-102.4 102.4zM512 153.6c-141.414 0-256 114.586-256 256s114.586 256 256 256c141.363 0 256-114.586 256-256s-114.637-256-256-256zM896 552.96c-19.814 0-35.84 16.077-35.84 35.891 0 19.712 16.026 35.84 35.84 35.84s35.84-16.077 35.84-35.84c0-19.814-16.026-35.891-35.84-35.891z" />
<glyph unicode="&#xe924;" glyph-name="chat" d="M296.96 348.16v317.44h-194.56c-56.32 0-102.4-46.080-102.4-102.4v-307.2c0-56.32 46.080-102.4 102.4-102.4h51.2v-153.6l153.6 153.6h256c56.32 0 102.4 46.080 102.4 102.4v93.184c-3.277-0.717-6.758-1.075-10.24-1.075l-358.4 0.051zM921.6 921.6h-460.8c-56.32 0-102.4-46.080-102.4-102.4v-409.6h358.4l153.6-153.6v153.6h51.2c56.32 0 102.4 46.029 102.4 102.4v307.2c0 56.32-46.080 102.4-102.4 102.4z" />
<glyph unicode="&#xe925;" glyph-name="circle-with-cross" d="M512 890.88c-237.517 0-430.080-192.563-430.080-430.080s192.563-430.080 430.080-430.080 430.080 192.563 430.080 430.080c0 237.517-192.563 430.080-430.080 430.080zM757.197 304.077l-88.525-88.525-156.672 156.723-156.723-156.672-88.525 88.525 156.774 156.672-156.723 156.723 88.525 88.474 156.672-156.672 156.723 156.723 88.525-88.525-156.774-156.723 156.723-156.723z" />
<glyph unicode="&#xe926;" glyph-name="circle-with-minus" d="M512 890.88c-237.517 0-430.080-192.563-430.080-430.080s192.563-430.080 430.080-430.080 430.080 192.563 430.080 430.080c0 237.517-192.563 430.080-430.080 430.080zM768 409.6h-512v102.4h512v-102.4z" />
<glyph unicode="&#xe927;" glyph-name="circle-with-plus" d="M512 890.88c-237.517 0-430.080-192.563-430.080-430.080s192.563-430.080 430.080-430.080 430.080 192.563 430.080 430.080c0 237.517-192.563 430.080-430.080 430.080zM768 409.6h-204.8v-204.8h-102.4v204.8h-204.8v102.4h204.8v204.8h102.4v-204.8h204.8v-102.4z" />
<glyph unicode="&#xe928;" glyph-name="cog" d="M859.29 460.8c0 53.709 33.075 96 82.79 125.082-9.011 29.901-20.838 58.624-35.43 85.606-55.757-14.592-100.864 7.219-138.803 45.21-37.939 37.888-49.562 82.995-34.97 138.803-26.982 14.592-55.706 26.522-85.606 35.379-29.082-49.664-81.664-82.688-135.27-82.688-53.658 0-106.189 33.024-135.322 82.688-29.952-8.858-58.573-20.787-85.555-35.379 14.592-55.808 3.021-100.915-35.021-138.803-37.888-37.99-82.995-59.802-138.803-45.21-14.592-26.982-26.47-55.706-35.379-85.606 49.664-29.082 82.688-71.373 82.688-125.082 0-53.606-33.024-106.189-82.688-135.322 8.96-29.901 20.787-58.573 35.379-85.606 55.808 14.592 100.915 3.021 138.803-34.918 37.939-37.99 49.613-83.098 35.021-138.803 26.982-14.592 55.654-26.522 85.606-35.482 29.082 49.818 81.664 82.79 135.322 82.79 53.606 0 106.189-33.024 135.322-82.79 29.901 9.011 58.573 20.89 85.606 35.482-14.592 55.706-3.021 100.813 34.97 138.803 37.939 37.888 83.046 59.699 138.803 45.21 14.592 26.982 26.47 55.603 35.43 85.606-49.818 29.133-82.893 71.424-82.893 125.030zM512 273.818c-103.322 0-187.034 83.712-187.034 186.982 0 103.322 83.763 187.085 187.034 187.085 103.322 0 186.982-83.814 186.982-187.085 0-103.322-83.661-186.982-186.982-186.982z" />
<glyph unicode="&#xe929;" glyph-name="credit-card" d="M921.6 819.2h-819.2c-56.371 0-102.4-46.080-102.4-102.4v-512c0-56.32 46.029-102.4 102.4-102.4h819.2c56.32 0 102.4 46.080 102.4 102.4v512c0 56.32-46.080 102.4-102.4 102.4zM921.6 204.8h-819.2v307.2h819.2v-307.2zM921.6 665.6h-819.2v51.2h819.2v-51.2zM204.8 404.48v-30.72h30.72v30.72h-30.72zM389.12 343.091v-30.771h61.44v30.771h30.72v30.72h30.72v30.72h-61.44v-30.72h-30.771v-30.72h-30.669zM512 312.32v30.771h-30.771v-30.771h30.771zM358.4 312.32v30.771h-61.44v-30.771h61.44zM389.12 373.811h30.72v30.72h-61.44v-61.389h30.72v30.669zM266.189 343.091h30.771v30.72h30.72v30.72h-61.44v-30.72h-30.72v-30.72h-30.72v-30.771h61.389v30.771z" />
<glyph unicode="&#xe92a;" glyph-name="database" d="M856.371 325.581c-43.162-69.786-180.992-120.883-344.371-120.883s-301.21 51.098-344.422 120.883c-9.114 14.848-13.978 6.912-13.978-0.358 0-7.373 0-102.502 0-102.502 0-99.328 160.461-202.24 358.4-202.24s358.4 102.912 358.4 202.189c0 0 0 95.13 0 102.502 0 7.322-4.915 15.258-14.029 0.41zM856.934 587.52c-42.496-61.696-180.838-107.008-344.934-107.008s-302.49 45.312-344.986 107.008c-8.755 12.698-13.414 5.786-13.414 0.102 0-5.786 0-120.678 0-120.678 0-90.214 160.461-163.277 358.4-163.277s358.4 73.114 358.4 163.277c0 0 0 114.893 0 120.678 0 5.683-4.71 12.595-13.466-0.102zM512 921.6c-197.939 0-358.4-60.416-358.4-134.81v-64.512c0-78.899 160.461-142.899 358.4-142.899s358.4 64 358.4 142.899v64.512c0 74.394-160.461 134.81-358.4 134.81z" />
<glyph unicode="&#xe92b;" glyph-name="edit" d="M899.123 847.923c-73.83 73.882-129.28 62.822-129.28 62.822l-656.691-656.64-51.712-243.814 243.866 51.712 656.691 656.538c-0.051 0 11.059 55.45-62.874 129.382zM290.816 91.29l-83.149-17.92c-7.987 15.002-17.664 30.003-35.328 47.718-17.715 17.715-32.717 27.29-47.718 35.379l17.92 83.098 24.064 24.013c0 0 45.21-0.922 96.307-52.019 51.046-50.995 52.019-96.307 52.019-96.307l-24.115-23.962z" />
<glyph unicode="&#xe92c;" glyph-name="eye" d="M512 747.52c-335.923 0-512-247.398-512-286.72 0-39.219 176.077-286.72 512-286.72 335.872 0 512 247.501 512 286.72 0 39.322-176.128 286.72-512 286.72zM512 240.282c-125.696 0-227.584 98.714-227.584 220.518s101.888 220.621 227.584 220.621c125.696 0 227.533-98.816 227.533-220.621s-101.837-220.518-227.533-220.518zM512 460.8c-20.838 22.886 33.946 110.285 0 110.285-62.874 0-113.818-49.408-113.818-110.285s50.944-110.285 113.818-110.285c62.822 0 113.818 49.408 113.818 110.285 0 28.006-96.102-19.405-113.818 0z" />
<glyph unicode="&#xe92d;" glyph-name="folder" d="M942.336 727.091c-5.683 22.528-33.536 40.909-61.952 40.909h-348.877c-28.365 0-68.096 16.282-88.166 36.198l-30.515 30.106c-20.070 19.917-59.75 36.096-88.115 36.096h-166.656c-28.416 0-54.221-22.886-57.344-50.893l-14.95-153.907h866.867l-10.291 61.491zM993.894 614.4h-963.789c-17.51 0-31.232-15.053-29.542-32.512l47.258-495.053c1.894-20.173 18.893-35.635 39.219-35.635h849.92c20.326 0 37.274 15.462 39.219 35.635l47.258 495.053c1.69 17.459-12.032 32.512-29.542 32.512z" />
<glyph unicode="&#xe92e;" glyph-name="heart-outlined" d="M880.128 760.013c-85.606 78.592-224.41 78.592-310.016 0l-58.112-53.299-58.163 53.299c-85.606 78.592-224.358 78.592-309.965 0-96.307-88.371-96.307-231.373 0-319.744l368.128-337.869 368.128 337.869c96.256 88.371 96.256 231.424 0 319.744zM825.549 492.8l-313.549-292.608-313.6 292.608c-31.59 29.030-43.827 66.918-43.827 107.213s7.066 73.37 38.707 102.349c27.904 25.651 65.434 39.782 105.626 39.782 40.141 0 77.67-24.371 105.574-50.074l107.52-93.44 107.469 93.491c27.955 25.702 65.434 50.074 105.626 50.074s77.722-14.131 105.626-39.782c31.642-28.979 38.656-62.054 38.656-102.349s-12.186-78.234-43.827-107.264z" />
<glyph unicode="&#xe92f;" glyph-name="heart" d="M880.128 760.064c-85.606 78.541-224.41 78.541-310.016 0l-58.112-53.35-58.163 53.35c-85.606 78.541-224.358 78.541-309.965 0-96.307-88.422-96.307-231.424 0-319.795l368.128-337.869 368.128 337.869c96.256 88.371 96.256 231.424 0 319.795z" />
<glyph unicode="&#xe930;" glyph-name="home" d="M956.006 409.6h-85.606v-307.2c0-22.784-9.933-51.2-51.2-51.2h-204.8v307.2h-204.8v-307.2h-204.8c-41.267 0-51.2 28.416-51.2 51.2v307.2h-85.606c-30.618 0-24.064 16.589-3.072 38.298l410.829 411.238c9.984 10.342 23.091 15.462 36.25 15.974 13.158-0.512 26.266-5.581 36.25-15.974l410.778-411.187c21.043-21.76 27.597-38.349-3.021-38.349z" />
<glyph unicode="&#xe931;" glyph-name="hour-glass" d="M798.72 738.509c0 109.517 0 120.218 0 120.218 0 40.397-128.41 114.074-286.72 114.074-158.362 0-286.72-73.677-286.72-114.074 0 0 0-10.701 0-120.218 0-109.619 198.502-200.090 198.502-277.709 0-77.517-198.502-167.987-198.502-277.606s0-120.32 0-120.32c0-40.346 128.358-114.074 286.72-114.074 158.31 0 286.72 73.728 286.72 114.125 0 0 0 10.701 0 120.32s-198.502 200.090-198.502 277.606c0 77.568 198.502 168.038 198.502 277.658zM304.179 853.606c35.635 22.477 102.4 55.398 210.637 55.398 108.186 0 205.107-55.398 205.107-55.398 7.27-4.403 35.738-19.61 16.23-31.181-42.906-25.446-126.874-52.224-224.154-52.224s-178.381 29.491-221.389 54.989c-19.507 11.52 13.568 28.416 13.568 28.416zM537.651 460.8c0-61.082 50.995-100.403 105.011-152.883 39.475-38.298 93.491-90.778 93.491-124.672v-67.994c-49.664 24.73-198.246 48.896-198.246 128.205 0 40.090-51.866 40.090-51.866 0 0-79.309-148.582-103.475-198.246-128.205v67.994c0 33.894 54.067 86.426 93.491 124.672 54.016 52.48 105.011 91.802 105.011 152.883s-50.995 100.403-105.011 152.883c-39.475 38.4-93.491 90.88-93.491 124.826l-2.355 51.098c52.531-28.314 135.782-55.194 226.56-55.194 90.726 0 174.387 26.88 226.97 55.194l-2.816-51.098c0-33.894-54.067-86.426-93.491-124.826-53.965-52.48-105.011-91.802-105.011-152.883z" />
<glyph unicode="&#xe932;" glyph-name="key" d="M905.779 730.88c-25.754 152.422-164.864 254.31-310.733 227.379-145.92-26.88-269.107-144.179-243.354-296.704 5.478-32.819 20.89-84.173 39.066-121.088l-264.96-395.418c-9.779-14.592-15.309-40.909-12.39-58.419l17.050-100.915c2.97-17.51 19.046-29.286 35.84-26.317l77.619 14.387c16.794 3.021 38.093 17.818 47.309 32.717l104.806 169.523 0.922 1.126 70.963 13.107 122.368 198.605c40.192-7.117 97.894-4.71 131.994 1.587 145.818 26.931 209.254 187.904 183.501 340.429zM776.499 652.698c-40.141-59.904-81.101-17.715-138.394 24.32-57.293 41.882-109.312 67.686-69.222 127.59 40.141 59.904 119.091 74.496 176.486 32.512 57.344-41.933 71.219-124.518 31.13-184.422z" />
<glyph unicode="&#xe933;" glyph-name="location-pin" d="M512 869.939c-141.414 0-256-114.125-256-255.488 0-244.429 256-563.2 256-563.2s256 318.822 256 563.2c0 141.312-114.586 255.488-256 255.488zM512 473.088c-76.39 0-138.24 61.901-138.24 138.24s61.85 138.24 138.24 138.24c76.288 0 138.189-61.901 138.189-138.24s-61.901-138.24-138.189-138.24z" />
<glyph unicode="&#xe934;" glyph-name="lock-open" d="M808.96 563.2h-92.16v122.88c0 148.326-68.352 235.52-204.8 235.52-136.499 0-204.8-87.194-204.8-235.52v-20.48h102.4v41.011c0 73.984 40.806 112.589 102.4 112.589s102.4-38.605 102.4-112.589v-143.411h-409.6c-28.314 0-51.2-33.075-51.2-61.389v-399.411c0-28.109 21.914-58.317 48.691-66.918l61.286-19.814c26.829-8.55 71.782-15.667 99.942-15.667h296.96c28.109 0 73.114 7.117 99.891 15.718l61.235 19.814c26.829 8.55 48.794 38.758 48.794 66.867v399.411c0 28.314-33.178 61.389-61.44 61.389z" />
<glyph unicode="&#xe935;" glyph-name="lock" d="M808.96 563.2h-92.16v122.88c0 148.326-68.352 235.52-204.8 235.52-136.499 0-204.8-87.194-204.8-235.52v-122.88h-102.4c-28.314 0-51.2-33.075-51.2-61.389v-399.411c0-28.109 21.914-58.317 48.691-66.918l61.286-19.814c26.829-8.55 71.782-15.667 99.942-15.667h296.96c28.109 0 73.114 7.117 99.891 15.718l61.235 19.814c26.829 8.55 48.794 38.758 48.794 66.867v399.411c0 28.314-33.178 61.389-61.44 61.389zM614.4 563.2h-204.8v143.411c0 73.984 40.806 112.589 102.4 112.589s102.4-38.605 102.4-112.589v-143.411z" />
<glyph unicode="&#xe936;" glyph-name="log-out" d="M972.8 460.8l-307.2 256v-153.6h-358.4v-204.8h358.4v-153.6l307.2 256zM153.6 819.2h409.6v102.4h-409.6c-56.32 0-102.4-46.080-102.4-102.4v-716.8c0-56.32 46.080-102.4 102.4-102.4h409.6v102.4h-409.6v716.8z" />
<glyph unicode="&#xe937;" glyph-name="magnifying-glass" d="M898.304 180.89l-193.485 193.485c29.184 47.872 45.978 104.192 45.978 164.352 0 174.95-151.603 326.502-326.554 326.502-174.95 0.051-316.723-141.773-316.723-316.723 0-174.899 151.603-326.502 326.502-326.502 58.214 0 112.64 15.821 159.488 43.213l194.509-194.611c19.046-18.995 49.92-18.995 68.915 0l48.282 48.282c18.995 18.995 12.083 43.008-6.912 62.003zM205.005 548.506c0 121.139 98.15 219.29 219.238 219.29 121.139 0 229.069-107.878 229.069-229.069 0-121.088-98.202-219.29-219.29-219.29-121.139 0.051-229.018 107.981-229.018 229.069z" />
<glyph unicode="&#xe938;" glyph-name="mail" d="M80.589 702.157c24.986-13.414 371.098-199.373 384-206.285s29.594-10.189 46.387-10.189c16.794 0 33.485 3.277 46.387 10.189s359.014 192.87 384 206.285c25.037 13.466 48.691 65.843 2.765 65.843h-866.253c-45.926 0-22.272-52.378 2.714-65.843zM952.986 589.363c-28.416-14.797-378.214-197.069-395.622-206.182s-29.594-10.189-46.387-10.189-28.979 1.075-46.387 10.189-365.21 191.437-393.626 206.234c-19.968 10.445-19.763-1.792-19.763-11.213s0-373.402 0-373.402c0-21.504 28.979-51.2 51.2-51.2h819.2c22.221 0 51.2 29.696 51.2 51.2 0 0 0 363.93 0 373.35s0.205 21.658-19.814 11.213z" />
<glyph unicode="&#xe939;" glyph-name="pin" d="M244.429 190.106l-107.776-166.4 11.469-54.426 54.272 11.622 107.725 166.298c-11.469 6.144-22.835 12.698-33.843 19.968-11.162 7.219-21.811 14.95-31.846 22.938zM700.723 248.218c0.717 1.485 1.178 3.123 1.843 4.71 2.714 5.99 5.12 11.981 7.066 18.278 0.307 1.126 0.461 2.253 0.819 3.277 1.997 6.963 3.686 13.824 5.018 20.89 0 0.358 0 0.614 0 1.075 9.984 59.853-7.424 126.618-47.258 186.931l56.832 87.757c65.485-8.346 122.112 8.141 149.35 50.278 47.258 72.858-10.24 194.15-128.256 271.002-118.118 76.902-252.058 80.128-299.213 7.373-27.341-42.189-19.354-100.71 15.002-157.338l-56.934-87.757c-71.117 11.93-139.059 0.819-189.594-32.768-0.307-0.102-0.666-0.205-0.87-0.41-5.888-3.994-11.622-8.397-16.998-13.005-0.87-0.717-1.894-1.382-2.611-2.099-5.018-4.301-9.523-9.114-13.875-13.926-1.024-1.229-2.458-2.304-3.43-3.584-5.427-6.195-10.445-12.749-14.848-19.712-70.861-109.21-10.394-274.483 134.81-369.101 145.306-94.618 320.512-82.637 391.219 26.573 4.454 6.912 8.55 14.131 11.93 21.555zM658.995 758.067c-45.414 29.542-67.584 76.134-49.408 104.243 18.125 28.006 69.683 26.726 114.995-2.816 45.517-29.542 67.482-76.237 49.408-104.243s-69.53-26.726-114.995 2.816z" />
<glyph unicode="&#xe93a;" glyph-name="print" d="M76.851 665.6h870.4c29.184 0 24.422 31.13 9.882 36.198-14.592 5.069-176.282 66.202-204.493 66.202h-35.84v153.6h-409.6v-153.6h-35.789c-28.16 0-189.901-61.133-204.442-66.202s-19.302-36.198 9.882-36.198zM972.8 614.4h-921.6c-28.16 0-51.2-23.040-51.2-51.2v-256c0-28.211 23.040-51.2 51.2-51.2h116.89l-45.158-256h778.189l-45.21 256h116.89c28.211 0 51.2 22.989 51.2 51.2v256c0 28.16-22.989 51.2-51.2 51.2zM235.674 102.4l61.338 358.554h430.029l61.389-358.554h-552.755z" />
<glyph unicode="&#xe93b;" glyph-name="shopping-cart" d="M665.6 102.4c0-56.525 45.773-102.4 102.4-102.4 56.525 0 102.4 45.875 102.4 102.4 0 56.627-45.875 102.4-102.4 102.4-56.627 0-102.4-45.773-102.4-102.4zM153.6 102.4c0-56.525 45.824-102.4 102.4-102.4 56.474 0 102.4 45.875 102.4 102.4 0 56.627-45.926 102.4-102.4 102.4-56.576 0-102.4-45.773-102.4-102.4zM335.206 349.594l566.682 161.894c10.803 3.123 19.712 14.797 19.712 26.112v281.6h-716.8v81.92c0 11.264-9.267 20.48-20.429 20.48h-163.942c-11.213 0-20.429-9.216-20.429-20.48v-81.92h102.4l97.792-458.598 4.608-48.282v-84.429c0-11.213 9.216-20.48 20.48-20.48h675.84c11.264 0 20.48 9.318 20.48 20.48v79.309h-575.898c-58.88 0-60.109 28.211-10.496 42.394z" />
<glyph unicode="&#xe93c;" glyph-name="star-outlined" d="M962.56 562.074h-328.346l-122.214 344.166-122.317-344.166h-328.294l267.878-202.086-95.795-354.765 278.528 212.685 278.426-212.685-95.693 354.765 267.827 202.086zM512 318.31l-154.317-128 63.642 182.374-145.971 117.76 180.326-5.171 56.32 206.848 56.269-206.848 180.275 5.171-145.971-117.76 63.642-182.374-154.214 128z" />
<glyph unicode="&#xe93d;" glyph-name="star" d="M512 906.24l122.266-344.166h328.294l-267.878-202.138 95.795-354.714-278.477 212.685-278.426-212.685 95.744 354.714-267.93 202.138h328.294l122.317 344.166z" />
<glyph unicode="&#xe93e;" glyph-name="user" d="M395.52 862.925c-52.019-38.707-65.997-99.994-63.437-132.608 3.277-39.885 11.366-91.802 11.366-91.802s-16.026-8.704-16.026-43.725c5.581-87.91 34.97-49.971 41.011-88.525 14.541-92.877 47.77-76.339 47.77-127.027 0-84.429-34.816-123.904-143.514-170.701-109.056-47.002-221.491-106.138-221.491-208.538v-51.2h921.6v51.2c0 102.4-112.486 161.536-221.594 208.486-108.698 46.797-143.411 86.221-143.411 170.701 0 50.688 33.126 34.15 47.718 127.027 6.093 38.554 35.43 0.614 41.114 88.525 0 35.021-16.077 43.725-16.077 43.725s8.090 51.917 11.315 91.802c3.328 41.83-20.378 131.123-117.76 158.515-17.050 17.408-28.57 45.107 23.859 72.909-114.688 5.376-141.363-54.63-202.445-98.765z" />
<glyph unicode="&#xe93f;" glyph-name="wallet" d="M819.2 665.6h-640v25.6l563.2 45.056v-45.056h76.8v76.8c0 56.32-45.619 95.846-101.325 87.91l-514.099-73.421c-55.757-7.987-101.376-60.57-101.376-116.89v-512c0-56.525 45.824-102.4 102.4-102.4h614.4c56.525 0 102.4 45.875 102.4 102.4v409.6c0 56.525-45.875 102.4-102.4 102.4zM742.4 306.893c-42.394 0-76.8 34.406-76.8 76.8s34.406 76.8 76.8 76.8 76.8-34.406 76.8-76.8-34.406-76.8-76.8-76.8z" />
<glyph unicode="&#xe940;" glyph-name="dropbox" d="M312.781 926.618l-292.301-182.016 200.243-167.885 291.277 189.082-199.219 160.819zM688.742 154.010c-5.222 0-10.394 1.69-14.592 5.222l-162.15 134.554-162.15-134.605c-4.198-3.482-9.421-5.222-14.592-5.222-4.352 0-8.704 1.178-12.493 3.686l-120.115 78.49v-46.285l309.35-194.867 309.35 194.918v46.285l-120.115-78.49c-3.789-2.509-8.141-3.686-12.493-3.686zM1003.52 744.602l-292.352 182.016-199.168-160.819 291.226-189.082 200.294 167.885zM512 394.701l180.634-149.914 288.819 188.826-178.227 143.104-291.226-182.016zM331.366 244.787l180.634 149.914-291.277 182.016-178.176-143.104 288.819-188.826z" />
<glyph unicode="&#xe941;" glyph-name="google-drive" d="M418.56 307.2l-170.189-307.2h605.389l170.24 307.2h-605.44zM300.288 855.091l-300.288-543.488 172.646-311.501 300.339 543.488-172.698 311.501zM995.584 358.4l-312.115 563.2h-345.344l311.706-563.2h345.754z" />
<glyph unicode="&#xe942;" glyph-name="youtube" d="M512 855.040c-503.194 0-512-44.749-512-394.24s8.806-394.24 512-394.24 512 44.749 512 394.24-8.806 394.24-512 394.24zM676.096 443.699l-229.888-107.315c-20.122-9.318-36.608 1.126-36.608 23.347v202.138c0 22.17 16.486 32.666 36.608 23.347l229.888-107.315c20.122-9.421 20.122-24.781 0-34.202z" />
</font></defs></svg>